0
1.00142e-05
1.00153e-05
1.00164e-05
1.00176e-05
1.00189e-05
1.00203e-05
1.00218e-05
1.00235e-05
1.00252e-05
1.00271e-05
1.00291e-05
1.00312e-05
1.00335e-05
1.0036e-05
1.00387e-05
1.00416e-05
1.00447e-05
1.0048e-05
1.00515e-05
1.00554e-05
1.00595e-05
1.00639e-05
1.00686e-05
1.00737e-05
1.00792e-05
1.00851e-05
1.00914e-05
1.00982e-05
1.01055e-05
1.01134e-05
1.01218e-05
1.01309e-05
1.01407e-05
1.01512e-05
1.01625e-05
1.01746e-05
1.01876e-05
1.02017e-05
1.02168e-05
1.0233e-05
1.02505e-05
1.02693e-05
1.02895e-05
1.03113e-05
1.03347e-05
1.03599e-05
1.03871e-05
1.04163e-05
1.04478e-05
1.04818e-05
1.05183e-05
1.05578e-05
1.06003e-05
1.06461e-05
1.06956e-05
1.0749e-05
1.08066e-05
1.08689e-05
1.09361e-05
1.10088e-05
1.10874e-05
1.11725e-05
1.12646e-05
1.13644e-05
1.14725e-05
1.15898e-05
1.17171e-05
1.18554e-05
1.20057e-05
1.21693e-05
1.23475e-05
1.25418e-05
1.27539e-05
1.29856e-05
1.32393e-05
1.35172e-05
1.38222e-05
1.41575e-05
1.45267e-05
1.49339e-05
1.5384e-05
1.58825e-05
1.6436e-05
1.7052e-05
1.77393e-05
1.85083e-05
1.93715e-05
2.03435e-05
2.14418e-05
2.26876e-05
2.41064e-05
2.57291e-05
2.75939e-05
2.97476e-05
3.22483e-05
3.51688e-05
3.86008e-05
4.26607e-05
4.74981e-05
5.33063e-05
6.03379e-05
6.89266e-05
7.95173e-05
9.27115e-05
0.00010933
0.000130512
0.000157854
0.000193632
0.000241138
0.000305218
0.000393128
0.000515935
0.000690873
0.000945342
0.00132393
0.00190095
0.00280355
0.00425541
0.0066618
0.0107809
0.0180799
0.0315039
0.0571988
0.108541
0.215969
0.452184
1
