0
0.00033406
0.000363307
0.000406545
0.000467148
0.000552935
0.00065548
0.00077342
0.000908406
0.00106216
0.0012419
0.00145
0.00168562
0.00195119
0.00224928
0.00259612
0.002986
0.00342053
0.00390291
0.00444028
0.00505158
0.00572476
0.00646328
0.00727054
0.00816388
0.00915042
0.0102191
0.0113727
0.0126138
0.0139719
0.0154313
0.0169856
0.0186354
0.0203838
0.0222601
0.0242295
0.0262896
0.0284376
0.0306808
0.0330182
0.0354239
0.0378915
0.0404138
0.0429904
0.0455994
0.0482256
0.0508582
0.0534862
0.0560833
0.0586376
0.0611369
0.0635686
0.0659101
0.0683543
0.0708826
0.0734973
0.0762009
0.0790162
0.0819443
0.0849725
0.0881045
0.091343
0.0947275
0.098235
0.101863
0.105614
0.1095
0.113562
0.117763
0.122109
0.126602
0.131274
0.13614
0.141173
0.146378
0.15176
0.157377
0.163206
0.169235
0.175469
0.181919
0.188669
0.195651
0.202872
0.21034
0.218094
0.22618
0.234544
0.243194
0.252138
0.261461
0.271147
0.281166
0.291527
0.30224
0.313448
0.325052
0.337053
0.349464
0.362331
0.37577
0.389669
0.404045
0.41891
0.43438
0.450478
0.467129
0.484348
0.502151
0.520752
0.540036
0.55998
0.580605
0.601961
0.624293
0.647393
0.671283
0.695987
0.721663
0.748414
0.776084
0.804702
0.834292
0.865159
0.897206
0.930352
0.964629
1.00007
